{
  "type": "service_account",
  "project_id": "loud-speaker-c11d9",
  "private_key_id": "dc248f297841e2663358886182e45059a8f71aed",
  "private_key": "-----BEGIN PRIVATE KEY-----\nMIIEvQIBADANBgkqhkiG9w0BAQEFAASCBKcwggSjAgEAAoIBAQDBA9x7AW2EVhtw\n9K61cPk12ts9jBSeCxaixi+y2hW84ZCf7cWeGQOkzeKBE9tXy1AuCEAIMKM4Uu0o\nAgl7u/2oWNOHxwLPjXfg4PZiKGd5WNcUCzptkIeMdmzEAhPa7FfYTD5zkWOXsnUM\nGFneICBh3hD8mkIdQlkBPgSodU/e/amUeNPl4g9QiyUv0kLcF4KnPaxC2514Jjvv\nqX4SZ//k8ZDPZ5BNIoIep9/7VEHRkywySB/vXSjWd5aQqZhOuDB1sK3cWPRbZPi9\nsuXSyojHbR/25gOsJ0ZhtnMzVyIllczELMOgCvtEfIlCtYr5VpnVzPFIsKRBU2YL\n6/HkF1YRAgMBAAECggEAU17rmWYgfA0FhWDrJgxKWOzTzl33edyoRl78s3Bn+1Ij\nOjFmLsf3PvR/ZenB0MZNN9Twc5kup2GKdsGKfxvQkSrtE7TujeA5a7VAN13kdBHf\ntRS0hCbtpcpxaKjNEr8Loq4sO5cNQbUfwb2y87NEyYE2LSYkcKb78wFq2ajyewqt\nQ0R3T+JurqEcXux8r72rw1fWE9NS+gUqaXg+7gI0+EuHzL1bULNSfeh28yIGO9yp\nAuC8O60NKf01SLjQKOvqmplbfX/Sl0EDgreoBS1arAR0CNhPiHskz7PldutBdtvM\nN+vkojETDYZxHSzmf+E8PWdPO8+xHkVajK0kflCCwQKBgQD4T2ghGeGX9qF9UD7F\n67glv75wbtb/4qUcMPpCiw07tFbzS3pK5lMHU3zBrsZYXGom6H3NU/qm4z/8INqq\ns0un0x7zQHzoUX6zLPw6zr++PqJbZQcFr0fVwTGNnmWfgRhRzyFNRWCfMcPkym8m\n4AF3POfF3yTR60KhGfTxCCRn1QKBgQDG/hO/9fvG0JmTnakDyrHOjWRz0+7ZlW5G\nEKExj4T9d1GUgXTil9aBL2opOiIaPRntq84FOmRYSW70kE8xBNU5ZGxqRxx4o9JH\naZ4U2hrH/WMhV9h6PJYawvMt50SPrpt5+6ncdAH17ojC0qeFFQfCR4uGnRpow5zc\nqBnvt8QvTQKBgHwHNczq34sHLuyoC2LS9d0tJFOGma+gprYpJKfeStLapl/KAKCu\n4SQUqIkZ4oq6Rm9+y2+nFdkMQ6aNRovjGNQQGTKJsJpeMnoO60H4iT/eizw5f0Nw\npOH5KOZDCyGb2ujqHAk7sSJzOhTqpJB3bWQAsQheCEcuSs6rZ3SJi52tAoGAFGLP\nLylKI/IW6bKLMCJB2QFPOzaJD61pYLAvc15ap4TjzKz+hoA7r3xmCdc0yy9bSqgB\nMTPsN8c+ILvwAPuXxItvN+wVFJ7j2gEN+uDlQXvJ/g571PoD/rXeJ+O7eGTQ9Mw9\neKJB2SoYxKzEELQ42URvHNlXbUgs98YY8iAHbzkCgYEAhCEuP/aswokqGaRdm+jx\nvCfIvUSOErVgWFpUzSbOv0FsthFxw5kKpM8UXKcJtvXTD+6wldB+UYKV2n9J7SnF\nHR+KTQCX0JukuFrD6ukiULk7HWLKN6D/LfdQ6Xk5tVNxTtwLqSZA7efpo5KGsplx\nqyAaXxSOUzDH2kYx88Wtd30=\n-----END PRIVATE KEY-----\n",
  "client_email": "firebase-crashreporting-fv0fc@loud-speaker-c11d9.iam.gserviceaccount.com",
  "client_id": "117760425684975994450",
  "auth_uri": "https://accounts.google.com/o/oauth2/auth",
  "token_uri": "https://accounts.google.com/o/oauth2/token",
  "auth_provider_x509_cert_url": "https://www.googleapis.com/oauth2/v1/certs",
  "client_x509_cert_url": "https://www.googleapis.com/robot/v1/metadata/x509/firebase-crashreporting-fv0fc%40loud-speaker-c11d9.iam.gserviceaccount.com"
}
